{
  "project_info": {
    "project_number": "875019351936",
    "firebase_url": "https://justforlocks-1f5f4.firebaseio.com",
    "project_id": "justforlocks-1f5f4",
    "storage_bucket": "justforlocks-1f5f4.appspot.com"
  },
  "client": [
    {
      "client_info": {
        "mobilesdk_app_id": "1:875019351936:android:90b895f58ee218c5383365",
        "android_client_info": {
          "package_name": "com.justforlocks"
        }
      },
      "oauth_client": [
        {
          "client_id": "875019351936-7af7ei9rp9v4nahejlsd04q7b733so4m.apps.googleusercontent.com",
          "client_type": 3
        }
      ],
      "api_key": [
        {
          "current_key": "AIzaSyBHf4_cSDpa2XaciuMnr8VyATaRCJWA-uc"
        }
      ],
      "services": {
        "appinvite_service": {
          "other_platform_oauth_client": [
            {
              "client_id": "875019351936-7af7ei9rp9v4nahejlsd04q7b733so4m.apps.googleusercontent.com",
              "client_type": 3
            }
          ]
        }
      }
    }
  ],
  "configuration_version": "1"
}